[gd_resource type="ConvexPolygonShape" format=2]

[resource]
points = PoolVector3Array( -16.4882, -0.724, -14.76, -16.4882, -0.724, 12.0526, -16.2815, -2.95923, -0.936, -16.2815, 3.03214, -0.936, -16.1648, 3.17331, -14.9835, -16.1648, 3.17331, 12.2715, -16.0688, -3.02653, -14.6234, -16.0688, -3.02653, 11.9033, -15.9953, -3.24502, -0.936, -15.139, 4.17443, -0.936, -14.9669, 4.07168, 13.1688, -14.9029, -3.90088, 12.7767, -14.8543, -4.10153, -0.936, -14.6909, -4.0599, -16.3442, -14.64, 4.31685, -15.9881, -14.64, 4.31685, 12.9772, -14.5688, 4.46021, -0.936, -12.5714, -4.10153, -0.936, -12.5714, 4.57891, -16.9054, -12.5714, 4.57891, 13.8946, -11.9435, -3.90551, -16.2753, -11.9435, -3.90551, 13.578, -11.0005, -2.96321, -15.6482, -11.0005, -2.96321, 12.6374, -11.0005, 3.32189, -15.6482, -11.0005, 3.32189, 12.6374, -10.6861, -0.76296, -15.0151, -10.6861, -0.76296, 12.3208, -10.6861, 1.12165, -15.0151, -10.6861, 1.12165, 12.3208, -9.25836, 1.1979, -7.11122, -9.25836, 1.1979, 2.06143, -8.80303, -0.9792, -7.88166, -8.80303, -0.9792, 2.55164 )
