<?xml version="1.0" encoding="UTF-8" standalone="no"?>
<!-- Created with Inkscape (http://www.inkscape.org/) -->

<svg
   xmlns:osb="http://www.openswatchbook.org/uri/2009/osb"
   xmlns:dc="http://purl.org/dc/elements/1.1/"
   xmlns:cc="http://creativecommons.org/ns#"
   xmlns:rdf="http://www.w3.org/1999/02/22-rdf-syntax-ns#"
   xmlns:svg="http://www.w3.org/2000/svg"
   xmlns="http://www.w3.org/2000/svg"
   xmlns:sodipodi="http://sodipodi.sourceforge.net/DTD/sodipodi-0.dtd"
   xmlns:inkscape="http://www.inkscape.org/namespaces/inkscape"
   width="70"
   height="70"
   viewBox="0 0 16.66875 16.66875"
   version="1.1"
   id="svg6692"
   style="enable-background:new"
   inkscape:version="0.92.4 5da689c313, 2019-01-14"
   sodipodi:docname="mission.svg"
   inkscape:export-filename="/media/WDElements/Sync/Assets/Images/GUI/target_reticle/target_reticle.png"
   inkscape:export-xdpi="351.08572"
   inkscape:export-ydpi="351.08572">
  <defs
     id="defs6686">
    <linearGradient
       id="linearGradient8194"
       osb:paint="solid">
      <stop
         style="stop-color:#ff3d3d;stop-opacity:1;"
         offset="0"
         id="stop8192" />
    </linearGradient>
    <filter
       inkscape:collect="always"
       style="color-interpolation-filters:sRGB"
       id="filter7635"
       x="-0.14196429"
       width="1.2839286"
       y="-0.14196429"
       height="1.2839286">
      <feBlend
         inkscape:collect="always"
         mode="overlay"
         in2="BackgroundImage"
         id="feBlend7637" />
    </filter>
    <filter
       inkscape:collect="always"
       style="color-interpolation-filters:sRGB"
       id="filter886"
       x="-0.077999987"
       width="1.156"
       y="-0.078000017"
       height="1.156">
      <feGaussianBlur
         inkscape:collect="always"
         stdDeviation="0.39400863"
         id="feGaussianBlur888" />
      <feBlend
         inkscape:collect="always"
         mode="overlay"
         in2="BackgroundImage"
         id="feBlend890" />
    </filter>
    <filter
       inkscape:collect="always"
       style="color-interpolation-filters:sRGB"
       id="filter892"
       x="-0.30720001"
       width="1.6144"
       y="-0.30720001"
       height="1.6144">
      <feGaussianBlur
         inkscape:collect="always"
         stdDeviation="1.92375"
         id="feGaussianBlur894" />
      <feBlend
         inkscape:collect="always"
         mode="overlay"
         in2="BackgroundImage"
         id="feBlend896" />
    </filter>
    <filter
       inkscape:collect="always"
       style="color-interpolation-filters:sRGB"
       id="filter898"
       x="-0.30720001"
       width="1.6144"
       y="-0.30720001"
       height="1.6144">
      <feGaussianBlur
         inkscape:collect="always"
         stdDeviation="1.92375"
         id="feGaussianBlur900" />
      <feBlend
         inkscape:collect="always"
         mode="overlay"
         in2="BackgroundImage"
         id="feBlend902" />
    </filter>
    <filter
       inkscape:collect="always"
       style="color-interpolation-filters:sRGB"
       id="filter904"
       x="-0.30720001"
       width="1.6144"
       y="-0.30720001"
       height="1.6144">
      <feGaussianBlur
         inkscape:collect="always"
         stdDeviation="1.92375"
         id="feGaussianBlur906" />
      <feBlend
         inkscape:collect="always"
         mode="overlay"
         in2="BackgroundImage"
         id="feBlend908" />
    </filter>
    <filter
       inkscape:collect="always"
       style="color-interpolation-filters:sRGB"
       id="filter910"
       x="-0.30720001"
       width="1.6144"
       y="-0.30720001"
       height="1.6144">
      <feGaussianBlur
         inkscape:collect="always"
         stdDeviation="1.92375"
         id="feGaussianBlur912" />
      <feBlend
         inkscape:collect="always"
         mode="overlay"
         in2="BackgroundImage"
         id="feBlend914" />
    </filter>
  </defs>
  <sodipodi:namedview
     id="base"
     pagecolor="#ffffff"
     bordercolor="#666666"
     borderopacity="1.0"
     inkscape:pageopacity="0"
     inkscape:pageshadow="2"
     inkscape:zoom="37.520854"
     inkscape:cx="39.955115"
     inkscape:cy="62.499692"
     inkscape:document-units="mm"
     inkscape:current-layer="layer1"
     showgrid="false"
     units="px"
     scale-x="0.9"
     inkscape:window-width="1920"
     inkscape:window-height="1043"
     inkscape:window-x="1280"
     inkscape:window-y="37"
     inkscape:window-maximized="0"
     inkscape:pagecheckerboard="true" />
  <metadata
     id="metadata6689">
    <rdf:RDF>
      <cc:Work
         rdf:about="">
        <dc:format>image/svg+xml</dc:format>
        <dc:type
           rdf:resource="http://purl.org/dc/dcmitype/StillImage" />
        <dc:title />
      </cc:Work>
    </rdf:RDF>
  </metadata>
  <g
     inkscape:label="Ebene 1"
     id="layer1"
     style="display:inline;filter:url(#filter7635)"
     transform="translate(0,-278.63792)"
     inkscape:groupmode="layer">
    <path
       style="display:none;fill:none;fill-rule:evenodd;stroke:#ffffff;stroke-width:0.238125;stroke-linecap:butt;stroke-linejoin:miter;stroke-miterlimit:4;stroke-dasharray:none;stroke-opacity:1"
       d="m 12.375524,291.01344 3.578851,3.57886"
       id="path8290"
       inkscape:connector-curvature="0"
       inkscape:export-xdpi="149"
       inkscape:export-ydpi="149"
       inkscape:label="target_t" />
    <path
       style="display:none;fill:none;fill-rule:evenodd;stroke:#ffffff;stroke-width:0.238125;stroke-linecap:butt;stroke-linejoin:miter;stroke-miterlimit:4;stroke-dasharray:none;stroke-opacity:1"
       d="m 0.714375,279.3523 3.5788513,3.57885"
       id="path8239"
       inkscape:connector-curvature="0"
       inkscape:label="target_t" />
    <path
       style="display:none;fill:none;fill-rule:evenodd;stroke:#ffffff;stroke-width:0.238125;stroke-linecap:butt;stroke-linejoin:miter;stroke-miterlimit:4;stroke-dasharray:none;stroke-opacity:1"
       d="m 12.375524,282.93115 3.578851,-3.57885"
       id="path8278"
       inkscape:connector-curvature="0"
       inkscape:label="target_t" />
    <path
       style="display:none;fill:none;fill-rule:evenodd;stroke:#ffffff;stroke-width:0.238125;stroke-linecap:butt;stroke-linejoin:miter;stroke-miterlimit:4;stroke-dasharray:none;stroke-opacity:1"
       d="m 0.714375,294.5923 3.5788513,-3.57886"
       id="path8241"
       inkscape:connector-curvature="0"
       inkscape:label="target_t" />
    <path
       id="path8243"
       style="display:inline;fill:none;fill-rule:evenodd;stroke:#ffcb05;stroke-width:2.5479375;stroke-linecap:butt;stroke-linejoin:miter;stroke-miterlimit:4;stroke-dasharray:none;stroke-opacity:0.94778065"
       d="m 8.3284004,280.91533 6.0526116,6.05697 -6.0526116,6.05695 -6.0526159,-6.05695 z"
       inkscape:connector-curvature="0"
       inkscape:label="target" />
  </g>
  <g
     id="layer3"
     inkscape:label="Ebene 2"
     style="display:none"
     transform="translate(0,1.42875)"
     inkscape:groupmode="layer">
    <path
       inkscape:connector-curvature="0"
       id="path9217"
       d="M 48.970703,48.970703 64,64"
       style="display:none;fill:none;fill-rule:evenodd;stroke:#ffffff;stroke-width:1.25;stroke-linecap:butt;stroke-linejoin:miter;stroke-miterlimit:4;stroke-dasharray:none;stroke-opacity:1;filter:url(#filter910);enable-background:new"
       transform="matrix(0.238125,0,0,0.238125,0.714375,-0.714375)"
       inkscape:export-xdpi="335.58182"
       inkscape:export-ydpi="335.58182"
       inkscape:label="glow_t" />
    <path
       inkscape:connector-curvature="0"
       id="path9219"
       d="M 0,0 15.029297,15.029297"
       style="display:none;fill:none;fill-rule:evenodd;stroke:#ffffff;stroke-width:1.25;stroke-linecap:butt;stroke-linejoin:miter;stroke-miterlimit:4;stroke-dasharray:none;stroke-opacity:1;filter:url(#filter904);enable-background:new"
       transform="matrix(0.238125,0,0,0.238125,0.714375,-0.714375)"
       inkscape:export-xdpi="335.58182"
       inkscape:export-ydpi="335.58182"
       inkscape:label="glow_t" />
    <path
       inkscape:connector-curvature="0"
       id="path9221"
       d="M 48.970703,15.029297 64,0"
       style="display:none;fill:none;fill-rule:evenodd;stroke:#ffffff;stroke-width:1.25;stroke-linecap:butt;stroke-linejoin:miter;stroke-miterlimit:4;stroke-dasharray:none;stroke-opacity:1;filter:url(#filter898);enable-background:new"
       transform="matrix(0.238125,0,0,0.238125,0.714375,-0.714375)"
       inkscape:export-xdpi="335.58182"
       inkscape:export-ydpi="335.58182"
       inkscape:label="glow_t" />
    <path
       inkscape:connector-curvature="0"
       id="path9223"
       d="M 0,64 15.029297,48.970703"
       style="display:none;fill:none;fill-rule:evenodd;stroke:#ffffff;stroke-width:1.25;stroke-linecap:butt;stroke-linejoin:miter;stroke-miterlimit:4;stroke-dasharray:none;stroke-opacity:1;filter:url(#filter892);enable-background:new"
       transform="matrix(0.238125,0,0,0.238125,0.714375,-0.714375)"
       inkscape:export-xdpi="335.58182"
       inkscape:export-ydpi="335.58182"
       inkscape:label="glow_t" />
    <path
       inkscape:connector-curvature="0"
       d="m 8.3343749,0.843955 6.0616721,6.06167 -6.0616721,6.06167 -6.0616728,-6.06167 z"
       style="display:inline;fill:none;fill-rule:evenodd;stroke:#fffcfc;stroke-width:0.29765624;stroke-linecap:butt;stroke-linejoin:miter;stroke-miterlimit:4;stroke-dasharray:none;stroke-opacity:1;filter:url(#filter886);enable-background:new"
       id="path9225"
       inkscape:label="glow" />
  </g>
</svg>
