[gd_resource type="Environment" load_steps=3 format=2]

[ext_resource path="res://textures/sky/hdr2.png" type="Texture" id=1]

[sub_resource type="PanoramaSky" id=1]
panorama = ExtResource( 1 )

[resource]
background_mode = 2
background_sky = SubResource( 1 )
background_energy = 0.75
ambient_light_color = Color( 0.0823529, 0.0823529, 0.0823529, 1 )
ambient_light_energy = 0.25
ambient_light_sky_contribution = 0.0
glow_enabled = true
glow_levels/2 = true
glow_levels/4 = true
glow_levels/6 = true
glow_levels/7 = true
glow_intensity = 0.4
glow_strength = 0.7
glow_bloom = 1.0
glow_blend_mode = 0
glow_hdr_threshold = 4.0
glow_bicubic_upscale = true
