[gd_scene load_steps=7 format=2]

[ext_resource path="res://scripts/classes/actors/ai_ship.gd" type="Script" id=1]
[ext_resource path="res://models/ships/old_ai/ally_ship.tscn" type="PackedScene" id=2]
[ext_resource path="res://scripts/classes/actors/ai_states/fighter/fighter_ai_package.tscn" type="PackedScene" id=3]
[ext_resource path="res://scripts/classes/misc/weapon.gd" type="Script" id=4]
[ext_resource path="res://models/turrets/hornet_turret/hornet_turret.tscn" type="PackedScene" id=5]

[sub_resource type="BoxShape" id=1]
extents = Vector3( 3.75, 1.25, 7 )

[node name="SpearfishFighter" type="KinematicBody" groups=[
"bomber",
"faction_earth",
]]
script = ExtResource( 1 )
MAX_HEALTH = 60.0
MAX_SHIELDS = 0.0
weapon_node_path = NodePath("Weapon")
turret_node_path = NodePath("Turrets")
state_package_path = NodePath("../SpearfishFighter/FighterAIStates")
enemy_factions = PoolStringArray( "faction_ipc" )
targeted_types = PoolStringArray( "bomber" )
turn_rate = 0.0

[node name="Weapon" type="Node" parent="."]
script = ExtResource( 4 )
projectile_name = "blue_energy_beam"
egress_node_paths = [ NodePath("../Turrets") ]

[node name="FighterAIStates" parent="." instance=ExtResource( 3 )]

[node name="Cube" parent="." instance=ExtResource( 2 )]

[node name="CollisionShape" type="CollisionShape" parent="."]
transform = Transform( 1, 0, 0, 0, 1, 0, 0, 0, 1, 0, 0.403552, 0 )
shape = SubResource( 1 )

[node name="Turrets" type="Spatial" parent="."]

[node name="HornetTurret" parent="Turrets" instance=ExtResource( 5 )]
transform = Transform( -1.62921e-07, 1, 0, -1, -1.62921e-07, 0, 0, 0, 1, 3, 0, -5.227 )

[node name="HornetTurret2" parent="Turrets" instance=ExtResource( 5 )]
transform = Transform( -1.62921e-07, -1, 0, 1, -1.62921e-07, 0, 0, 0, 1, -3, 0, -5.227 )
