[gd_resource type="SpatialMaterial" load_steps=2 format=2]

[ext_resource path="res://textures/ipc_flag.png" type="Texture" id=1]

[resource]
resource_name = "flag"
albedo_color = Color( 0.64, 0.64, 0.64, 1 )
albedo_texture = ExtResource( 1 )
metallic_specular = 0.0
