[gd_resource type="SpatialMaterial" format=2]

[resource]
flags_transparent = true
params_grow = true
params_grow_amount = 0.5
albedo_color = Color( 0, 0.694118, 0.992157, 0.0392157 )
metallic = 0.15
roughness = 0.0
subsurf_scatter_enabled = true
subsurf_scatter_strength = 1.0
